…
## **Question 3: Busiest Hour of the Day**

### **Requests Distribution per Hour**

``` r
x %>%
  group_by(Time..Local.) %>%
  summarise(
    requests_total = sum(Requests, na.rm = TRUE)
  ) %>%
  arrange(desc(requests_total))
```

    ## # A tibble: 24 × 2
    ##    Time..Local. requests_total
    ##           <int>          <int>
    ##  1           23            184
    ##  2           22            174
    ##  3           19            156
    ##  4            0            142
    ##  5           18            119
    ##  6           21            112
    ##  7           20            107
    ##  8            2            100
    ##  9           17             98
    ## 10            1             96
    ## # ℹ 14 more rows
…
